AFPProtonContainer
AFPProtonContainerAux.
AFPSiHitContainer
AFPSiHitContainerAux.
AFPSiHitsClusterContainer
AFPSiHitsClusterContainerAux.
AFPToFHitContainer
AFPToFHitContainerAux.
AFPToFTrackContainer
AFPToFTrackContainerAux.
AFPTrackContainer
AFPTrackContainerAux.
AFPVertexContainer
AFPVertexContainerAux.
AllCalo
BunchConfKey
BunchId
ByteStreamMetadata
CaloCalFwdTopoTowers
CaloCalFwdTopoTowersAux.
CaloCalFwdTopoTowersAuxDyn.ENG_FRAC_EM
CaloCalFwdTopoTowersAuxDyn.LONGITUDINAL
CaloCalFwdTopoTowersAuxDyn.SIGNIFICANCE
CaloCalTopoClusters
CaloCalTopoClustersAux.
CaloCalTopoClustersAuxDyn.AVG_LAR_Q
CaloCalTopoClustersAuxDyn.AVG_TILE_Q
CaloCalTopoClustersAuxDyn.BADLARQ_FRAC
CaloCalTopoClustersAuxDyn.BadChannelList
CaloCalTopoClustersAuxDyn.CELL_SIGNIFICANCE
CaloCalTopoClustersAuxDyn.CENTER_LAMBDA
CaloCalTopoClustersAuxDyn.CENTER_MAG
CaloCalTopoClustersAuxDyn.CellLink
CaloCalTopoClustersAuxDyn.EM_PROBABILITY
CaloCalTopoClustersAuxDyn.ENG_BAD_CELLS
CaloCalTopoClustersAuxDyn.ENG_FRAC_MAX
CaloCalTopoClustersAuxDyn.ENG_POS
CaloCalTopoClustersAuxDyn.FIRST_ENG_DENS
CaloCalTopoClustersAuxDyn.ISOLATION
CaloCalTopoClustersAuxDyn.LATERAL
CaloCalTopoClustersAuxDyn.LONGITUDINAL
CaloCalTopoClustersAuxDyn.MASS
CaloCalTopoClustersAuxDyn.NCELL_SAMPLING
CaloCalTopoClustersAuxDyn.N_BAD_CELLS
CaloCalTopoClustersAuxDyn.PTD
CaloCalTopoClustersAuxDyn.SECOND_LAMBDA
CaloCalTopoClustersAuxDyn.SECOND_R
CaloCalTopoClustersAuxDyn.SECOND_TIME
CaloCalTopoClustersAuxDyn.SIGNIFICANCE
CaloCalTopoClusters_links
CombinedMuonTrackParticles
CombinedMuonTrackParticlesAux.
CombinedMuonTrackParticlesAuxDyn.TRTdEdx
CombinedMuonTrackParticlesAuxDyn.TRTdEdxUsedHits
CombinedMuonTrackParticlesAuxDyn.alignEffectChId
CombinedMuonTrackParticlesAuxDyn.alignEffectDeltaAngle
CombinedMuonTrackParticlesAuxDyn.alignEffectDeltaTrans
CombinedMuonTrackParticlesAuxDyn.alignEffectSigmaDeltaAngle
CombinedMuonTrackParticlesAuxDyn.alignEffectSigmaDeltaTrans
CombinedMuonTrackParticlesAuxDyn.deltaphi_0
CombinedMuonTrackParticlesAuxDyn.deltaphi_1
CombinedMuonTrackParticlesAuxDyn.deltatheta_0
CombinedMuonTrackParticlesAuxDyn.deltatheta_1
CombinedMuonTrackParticlesAuxDyn.eProbabilityNN
CombinedMuonTrackParticlesAuxDyn.parameterPX
CombinedMuonTrackParticlesAuxDyn.parameterPY
CombinedMuonTrackParticlesAuxDyn.parameterPZ
CombinedMuonTrackParticlesAuxDyn.parameterPosition
CombinedMuonTrackParticlesAuxDyn.parameterX
CombinedMuonTrackParticlesAuxDyn.parameterY
CombinedMuonTrackParticlesAuxDyn.parameterZ
CombinedMuonTrackParticlesAuxDyn.sigmadeltaphi_0
CombinedMuonTrackParticlesAuxDyn.sigmadeltaphi_1
CombinedMuonTrackParticlesAuxDyn.sigmadeltatheta_0
CombinedMuonTrackParticlesAuxDyn.sigmadeltatheta_1
CombinedMuonTrackParticlesAuxDyn.trackLink
CombinedMuonTrackParticlesAuxDyn.trackParameterCovarianceMatrices
CombinedMuonsLRTTrackParticles
CombinedMuonsLRTTrackParticlesAux.
CombinedMuonsLRTTrackParticlesAuxDyn.TRTdEdx
CombinedMuonsLRTTrackParticlesAuxDyn.TRTdEdxUsedHits
CombinedMuonsLRTTrackParticlesAuxDyn.alignEffectChId
CombinedMuonsLRTTrackParticlesAuxDyn.alignEffectDeltaAngle
CombinedMuonsLRTTrackParticlesAuxDyn.alignEffectDeltaTrans
CombinedMuonsLRTTrackParticlesAuxDyn.alignEffectSigmaDeltaAngle
CombinedMuonsLRTTrackParticlesAuxDyn.alignEffectSigmaDeltaTrans
CombinedMuonsLRTTrackParticlesAuxDyn.deltaphi_0
CombinedMuonsLRTTrackParticlesAuxDyn.deltaphi_1
CombinedMuonsLRTTrackParticlesAuxDyn.deltatheta_0
CombinedMuonsLRTTrackParticlesAuxDyn.deltatheta_1
CombinedMuonsLRTTrackParticlesAuxDyn.eProbabilityNN
CombinedMuonsLRTTrackParticlesAuxDyn.parameterPX
CombinedMuonsLRTTrackParticlesAuxDyn.parameterPY
CombinedMuonsLRTTrackParticlesAuxDyn.parameterPZ
CombinedMuonsLRTTrackParticlesAuxDyn.parameterPosition
CombinedMuonsLRTTrackParticlesAuxDyn.parameterX
CombinedMuonsLRTTrackParticlesAuxDyn.parameterY
CombinedMuonsLRTTrackParticlesAuxDyn.parameterZ
CombinedMuonsLRTTrackParticlesAuxDyn.sigmadeltaphi_0
CombinedMuonsLRTTrackParticlesAuxDyn.sigmadeltaphi_1
CombinedMuonsLRTTrackParticlesAuxDyn.sigmadeltatheta_0
CombinedMuonsLRTTrackParticlesAuxDyn.sigmadeltatheta_1
CombinedMuonsLRTTrackParticlesAuxDyn.trackLink
CombinedMuonsLRTTrackParticlesAuxDyn.trackParameterCovarianceMatrices
CombinedStauTrackParticles
CombinedStauTrackParticlesAux.
CombinedStauTrackParticlesAuxDyn.TRTdEdx
CombinedStauTrackParticlesAuxDyn.TRTdEdxUsedHits
CombinedStauTrackParticlesAuxDyn.alignEffectChId
CombinedStauTrackParticlesAuxDyn.alignEffectDeltaAngle
CombinedStauTrackParticlesAuxDyn.alignEffectDeltaTrans
CombinedStauTrackParticlesAuxDyn.alignEffectSigmaDeltaAngle
CombinedStauTrackParticlesAuxDyn.alignEffectSigmaDeltaTrans
CombinedStauTrackParticlesAuxDyn.deltaphi_0
CombinedStauTrackParticlesAuxDyn.deltaphi_1
CombinedStauTrackParticlesAuxDyn.deltatheta_0
CombinedStauTrackParticlesAuxDyn.deltatheta_1
CombinedStauTrackParticlesAuxDyn.eProbabilityNN
CombinedStauTrackParticlesAuxDyn.parameterPX
CombinedStauTrackParticlesAuxDyn.parameterPY
CombinedStauTrackParticlesAuxDyn.parameterPZ
CombinedStauTrackParticlesAuxDyn.parameterPosition
CombinedStauTrackParticlesAuxDyn.parameterX
CombinedStauTrackParticlesAuxDyn.parameterY
CombinedStauTrackParticlesAuxDyn.parameterZ
CombinedStauTrackParticlesAuxDyn.sigmadeltaphi_0
CombinedStauTrackParticlesAuxDyn.sigmadeltaphi_1
CombinedStauTrackParticlesAuxDyn.sigmadeltatheta_0
CombinedStauTrackParticlesAuxDyn.sigmadeltatheta_1
CombinedStauTrackParticlesAuxDyn.trackLink
CombinedStauTrackParticlesAuxDyn.trackParameterCovarianceMatrices
ConditionsRun
DataHeader
DataHeaderForm
DiTauJets
DiTauJetsAux.
E4prContainer
ElectronCaloRings
ElectronCaloRingsAux.
ElectronRingSets
ElectronRingSetsAux.
Electrons
ElectronsAux.
ElectronsAuxDyn.LHLoose
ElectronsAuxDyn.LHMedium
ElectronsAuxDyn.LHTight
ElectronsAuxDyn.LHValue
ElectronsAuxDyn.Loose
ElectronsAuxDyn.Medium
ElectronsAuxDyn.Tight
ElectronsAuxDyn.ambiguityLink
ElectronsAuxDyn.ambiguityType
ElectronsAuxDyn.asy1
ElectronsAuxDyn.barys1
ElectronsAuxDyn.caloRingsLinks
ElectronsAuxDyn.chargedFELinks
ElectronsAuxDyn.core57cellsEnergyCorrection
ElectronsAuxDyn.deltaEta1PearDistortion
ElectronsAuxDyn.e1152
ElectronsAuxDyn.e132
ElectronsAuxDyn.e233
ElectronsAuxDyn.e235
ElectronsAuxDyn.e237
ElectronsAuxDyn.e255
ElectronsAuxDyn.e2ts1
ElectronsAuxDyn.e2tsts1
ElectronsAuxDyn.ecore
ElectronsAuxDyn.ehad1
ElectronsAuxDyn.emaxs1
ElectronsAuxDyn.emins1
ElectronsAuxDyn.ethad
ElectronsAuxDyn.ethad1
ElectronsAuxDyn.neutralFELinks
ElectronsAuxDyn.pos
ElectronsAuxDyn.pos7
ElectronsAuxDyn.poscs1
ElectronsAuxDyn.poscs2
ElectronsAuxDyn.ptcone20
ElectronsAuxDyn.ptcone30
ElectronsAuxDyn.ptvarcone20
ElectronsAuxDyn.ptvarcone30
ElectronsAuxDyn.r33over37allcalo
ElectronsAuxDyn.topoetcone20
ElectronsAuxDyn.topoetcone20ptCorrection
ElectronsAuxDyn.topoetcone30
ElectronsAuxDyn.topoetcone30ptCorrection
ElectronsAuxDyn.topoetcone40
ElectronsAuxDyn.topoetcone40ptCorrection
ElectronsAuxDyn.widths1
ElectronsAuxDyn.widths2
EventFormatStreamAOD
EventInfo
EventInfoAux.
EventInfoAuxDyn.actualInteractionsPerCrossing
EventInfoAuxDyn.averageInteractionsPerCrossing
EventInfoAuxDyn.beamPosSigmaX
EventInfoAuxDyn.beamPosSigmaXY
EventInfoAuxDyn.beamPosSigmaY
EventInfoAuxDyn.beamPosSigmaZ
EventInfoAuxDyn.beamPosX
EventInfoAuxDyn.beamPosY
EventInfoAuxDyn.beamPosZ
EventInfoAuxDyn.beamStatus
EventInfoAuxDyn.beamTiltXZ
EventInfoAuxDyn.beamTiltYZ
EventInfoAuxDyn.mcChannelNumber
EventInfoAuxDyn.mcEventNumber
EventInfoAuxDyn.mcEventWeights
EventInfoAuxDyn.streamTagDets
EventInfoAuxDyn.streamTagRobs
EventInfo_p4
EventNumber
EventTime
EventTimeNanoSec
EventWeight
ExtraPolatedMuonsLRTTrackParticles
ExtraPolatedMuonsLRTTrackParticlesAux.
ExtraPolatedMuonsLRTTrackParticlesAuxDyn.TRTdEdx
ExtraPolatedMuonsLRTTrackParticlesAuxDyn.TRTdEdxUsedHits
ExtraPolatedMuonsLRTTrackParticlesAuxDyn.alignEffectChId
ExtraPolatedMuonsLRTTrackParticlesAuxDyn.alignEffectDeltaAngle
ExtraPolatedMuonsLRTTrackParticlesAuxDyn.alignEffectDeltaTrans
ExtraPolatedMuonsLRTTrackParticlesAuxDyn.alignEffectSigmaDeltaAngle
ExtraPolatedMuonsLRTTrackParticlesAuxDyn.alignEffectSigmaDeltaTrans
ExtraPolatedMuonsLRTTrackParticlesAuxDyn.deltaphi_0
ExtraPolatedMuonsLRTTrackParticlesAuxDyn.deltaphi_1
ExtraPolatedMuonsLRTTrackParticlesAuxDyn.deltatheta_0
ExtraPolatedMuonsLRTTrackParticlesAuxDyn.deltatheta_1
ExtraPolatedMuonsLRTTrackParticlesAuxDyn.eProbabilityNN
ExtraPolatedMuonsLRTTrackParticlesAuxDyn.parameterPX
ExtraPolatedMuonsLRTTrackParticlesAuxDyn.parameterPY
ExtraPolatedMuonsLRTTrackParticlesAuxDyn.parameterPZ
ExtraPolatedMuonsLRTTrackParticlesAuxDyn.parameterPosition
ExtraPolatedMuonsLRTTrackParticlesAuxDyn.parameterX
ExtraPolatedMuonsLRTTrackParticlesAuxDyn.parameterY
ExtraPolatedMuonsLRTTrackParticlesAuxDyn.parameterZ
ExtraPolatedMuonsLRTTrackParticlesAuxDyn.sigmadeltaphi_0
ExtraPolatedMuonsLRTTrackParticlesAuxDyn.sigmadeltaphi_1
ExtraPolatedMuonsLRTTrackParticlesAuxDyn.sigmadeltatheta_0
ExtraPolatedMuonsLRTTrackParticlesAuxDyn.sigmadeltatheta_1
ExtraPolatedMuonsLRTTrackParticlesAuxDyn.trackLink
ExtraPolatedMuonsLRTTrackParticlesAuxDyn.trackParameterCovarianceMatrices
ExtrapolatedMuonTrackParticles
ExtrapolatedMuonTrackParticlesAux.
ExtrapolatedMuonTrackParticlesAuxDyn.TRTdEdx
ExtrapolatedMuonTrackParticlesAuxDyn.TRTdEdxUsedHits
ExtrapolatedMuonTrackParticlesAuxDyn.alignEffectChId
ExtrapolatedMuonTrackParticlesAuxDyn.alignEffectDeltaAngle
ExtrapolatedMuonTrackParticlesAuxDyn.alignEffectDeltaTrans
ExtrapolatedMuonTrackParticlesAuxDyn.alignEffectSigmaDeltaAngle
ExtrapolatedMuonTrackParticlesAuxDyn.alignEffectSigmaDeltaTrans
ExtrapolatedMuonTrackParticlesAuxDyn.deltaphi_0
ExtrapolatedMuonTrackParticlesAuxDyn.deltaphi_1
ExtrapolatedMuonTrackParticlesAuxDyn.deltatheta_0
ExtrapolatedMuonTrackParticlesAuxDyn.deltatheta_1
ExtrapolatedMuonTrackParticlesAuxDyn.eProbabilityNN
ExtrapolatedMuonTrackParticlesAuxDyn.parameterPX
ExtrapolatedMuonTrackParticlesAuxDyn.parameterPY
ExtrapolatedMuonTrackParticlesAuxDyn.parameterPZ
ExtrapolatedMuonTrackParticlesAuxDyn.parameterPosition
ExtrapolatedMuonTrackParticlesAuxDyn.parameterX
ExtrapolatedMuonTrackParticlesAuxDyn.parameterY
ExtrapolatedMuonTrackParticlesAuxDyn.parameterZ
ExtrapolatedMuonTrackParticlesAuxDyn.sigmadeltaphi_0
ExtrapolatedMuonTrackParticlesAuxDyn.sigmadeltaphi_1
ExtrapolatedMuonTrackParticlesAuxDyn.sigmadeltatheta_0
ExtrapolatedMuonTrackParticlesAuxDyn.sigmadeltatheta_1
ExtrapolatedMuonTrackParticlesAuxDyn.trackLink
ExtrapolatedMuonTrackParticlesAuxDyn.trackParameterCovarianceMatrices
ExtrapolatedStauTrackParticles
ExtrapolatedStauTrackParticlesAux.
FileMetaData
FileMetaDataAux.
FileMetaDataAuxDyn.beamEnergy
FileMetaDataAuxDyn.beamType
FileMetaDataAuxDyn.conditionsTag
FileMetaDataAuxDyn.geometryVersion
FileMetaDataAuxDyn.mcProcID
ForwardElectronClusters
ForwardElectronClustersAux.
ForwardElectronClustersAuxDyn.AVG_LAR_Q
ForwardElectronClustersAuxDyn.AVG_TILE_Q
ForwardElectronClustersAuxDyn.BADLARQ_FRAC
ForwardElectronClustersAuxDyn.BAD_CELLS_CORR_E
ForwardElectronClustersAuxDyn.BadChannelList
ForwardElectronClustersAuxDyn.CELL_SIGNIFICANCE
ForwardElectronClustersAuxDyn.CELL_SIG_SAMPLING
ForwardElectronClustersAuxDyn.CENTER_LAMBDA
ForwardElectronClustersAuxDyn.CENTER_MAG
ForwardElectronClustersAuxDyn.CENTER_X
ForwardElectronClustersAuxDyn.CENTER_Y
ForwardElectronClustersAuxDyn.CENTER_Z
ForwardElectronClustersAuxDyn.CellLink
ForwardElectronClustersAuxDyn.DELTA_ALPHA
ForwardElectronClustersAuxDyn.DELTA_PHI
ForwardElectronClustersAuxDyn.DELTA_THETA
ForwardElectronClustersAuxDyn.DM_WEIGHT
ForwardElectronClustersAuxDyn.EM_PROBABILITY
ForwardElectronClustersAuxDyn.ENG_BAD_CELLS
ForwardElectronClustersAuxDyn.ENG_BAD_HV_CELLS
ForwardElectronClustersAuxDyn.ENG_FRAC_CORE
ForwardElectronClustersAuxDyn.ENG_FRAC_EM
ForwardElectronClustersAuxDyn.ENG_FRAC_MAX
ForwardElectronClustersAuxDyn.ENG_POS
ForwardElectronClustersAuxDyn.FIRST_ENG_DENS
ForwardElectronClustersAuxDyn.FIRST_ETA
ForwardElectronClustersAuxDyn.FIRST_PHI
ForwardElectronClustersAuxDyn.HAD_WEIGHT
ForwardElectronClustersAuxDyn.ISOLATION
ForwardElectronClustersAuxDyn.LATERAL
ForwardElectronClustersAuxDyn.LONGITUDINAL
ForwardElectronClustersAuxDyn.MASS
ForwardElectronClustersAuxDyn.NCELL_SAMPLING
ForwardElectronClustersAuxDyn.N_BAD_CELLS
ForwardElectronClustersAuxDyn.N_BAD_CELLS_CORR
ForwardElectronClustersAuxDyn.N_BAD_HV_CELLS
ForwardElectronClustersAuxDyn.OOC_WEIGHT
ForwardElectronClustersAuxDyn.PTD
ForwardElectronClustersAuxDyn.SECOND_ENG_DENS
ForwardElectronClustersAuxDyn.SECOND_LAMBDA
ForwardElectronClustersAuxDyn.SECOND_R
ForwardElectronClustersAuxDyn.SECOND_TIME
ForwardElectronClustersAuxDyn.SIGNIFICANCE
ForwardElectronClustersAuxDyn.constituentClusterLinks
ForwardElectronClustersAuxDyn.emax_sampl
ForwardElectronClustersAuxDyn.eta_sampl
ForwardElectronClustersAuxDyn.etamax_sampl
ForwardElectronClustersAuxDyn.phi_sampl
ForwardElectronClustersAuxDyn.phimax_sampl
ForwardElectronClusters_links
ForwardElectrons
ForwardElectronsAux.
ForwardElectronsAuxDyn.Loose
ForwardElectronsAuxDyn.Medium
ForwardElectronsAuxDyn.Tight
GSFConversionVertices
GSFConversionVerticesAux.
GSFConversionVerticesAuxDyn.DR1R2
GSFConversionVerticesAuxDyn.deltaCotThetaTrk
GSFConversionVerticesAuxDyn.deltaInitRadius
GSFConversionVerticesAuxDyn.deltaPhiTracks
GSFConversionVerticesAuxDyn.deltaPhiVtxTrk
GSFConversionVerticesAuxDyn.etaAtCalo
GSFConversionVerticesAuxDyn.mass
GSFConversionVerticesAuxDyn.minRfirstHit
GSFConversionVerticesAuxDyn.minimumDistanceTrk
GSFConversionVerticesAuxDyn.phiAtCalo
GSFConversionVerticesAuxDyn.pt1
GSFConversionVerticesAuxDyn.pt2
GSFConversionVerticesAuxDyn.px
GSFConversionVerticesAuxDyn.py
GSFConversionVerticesAuxDyn.pz
GSFTrackParticles
GSFTrackParticlesAux.
GSFTrackParticlesAuxDyn.QoverPLM
GSFTrackParticlesAuxDyn.TRTdEdx
GSFTrackParticlesAuxDyn.TRTdEdxUsedHits
GSFTrackParticlesAuxDyn.eProbabilityNN
GSFTrackParticlesAuxDyn.originalTrackParticle
GSFTrackParticlesAuxDyn.parameterPX
GSFTrackParticlesAuxDyn.parameterPY
GSFTrackParticlesAuxDyn.parameterPZ
GSFTrackParticlesAuxDyn.parameterPosition
GSFTrackParticlesAuxDyn.parameterX
GSFTrackParticlesAuxDyn.parameterY
GSFTrackParticlesAuxDyn.parameterZ
GSFTrackParticlesAuxDyn.trackLink
GSFTrackParticlesAuxDyn.trackParameterCovarianceMatrices
HLT_CombinedMuonFeatureContainer
HLT_MuonFeatureContainer
HLT_MuonFeatureDetailsContainer
HLT_TrigEFBjetContainer_EFBjetFex
HLT_TrigEMClusterContainer_TrigT2CaloCosmic
HLT_TrigMissingETContainer_TrigEFMissingET
HLT_TrigMuonEFInfoContainer_MuonEFInfo
HLT_TrigPassBitsCollection_passbits
HLT_TrigPassFlagsCollection_isEM
HLT_TrigPassFlagsCollection_passflags
HLT_TrigRoiDescriptorCollection_SplitJet
HLT_TrigRoiDescriptorCollection_SuperRoi
HLT_TrigRoiDescriptorCollection_forID
HLT_TrigRoiDescriptorCollection_forID1
HLT_TrigRoiDescriptorCollection_forID2
HLT_TrigRoiDescriptorCollection_forID3
HLT_TrigRoiDescriptorCollection_forMS
HLT_TrigRoiDescriptorCollection_initialRoI
HLT_TrigRoiDescriptorCollection_secondaryRoI_EF
HLT_TrigRoiDescriptorCollection_secondaryRoI_HLT
HLT_TrigRoiDescriptorCollection_secondaryRoI_L2
HLT_TrigSpacePointCountsCollection_spacepoints
HLT_TrigT2MbtsBitsContainer_T2Mbts
HLT_TrigTrackCountsCollection_trackcounts
HLT_TrigVertexCollection_TrigBeamSpotVertex
HLT_TrigVertexCollection_TrigL2SiTrackFinder_FullScan_ZF_Only
HLT_TrigVertexCountsCollection_vertexcounts
HLT_xAOD__BTagVertexContainer_BjetVertexFex
HLT_xAOD__BTagVertexContainer_BjetVertexFexAux.
HLT_xAOD__BTaggingContainer_HLTBjetFex
HLT_xAOD__BTaggingContainer_HLTBjetFexAux.
HLT_xAOD__CaloClusterContainer_CaloCalTopoCluster
HLT_xAOD__CaloClusterContainer_TrigCaloClusterMaker
HLT_xAOD__CaloClusterContainer_TrigCaloClusterMakerAux.
HLT_xAOD__CaloClusterContainer_TrigCaloClusterMaker_slw
HLT_xAOD__CaloClusterContainer_TrigCaloClusterMaker_slwAux.
HLT_xAOD__CaloClusterContainer_TrigEFCaloCalibFex
HLT_xAOD__CaloClusterContainer_TrigEFCaloCalibFexAux.
HLT_xAOD__ElectronContainer_egamma_Electrons
HLT_xAOD__ElectronContainer_egamma_ElectronsAux.
HLT_xAOD__ElectronContainer_egamma_Iso_Electrons
HLT_xAOD__ElectronContainer_egamma_Iso_ElectronsAux.
HLT_xAOD__EmTauRoIContainer_L1TopoEM
HLT_xAOD__EmTauRoIContainer_L1TopoEMAux.
HLT_xAOD__EmTauRoIContainer_L1TopoTau
HLT_xAOD__EmTauRoIContainer_L1TopoTauAux.
HLT_xAOD__HIEventShapeContainer_HIUE
HLT_xAOD__HIEventShapeContainer_HIUEAux.
HLT_xAOD__JetContainer_EFJet
HLT_xAOD__JetContainer_EFJetAux.
HLT_xAOD__JetContainer_FarawayJet
HLT_xAOD__JetContainer_FarawayJetAux.
HLT_xAOD__JetContainer_GSCJet
HLT_xAOD__JetContainer_GSCJetAux.
HLT_xAOD__JetContainer_SplitJet
HLT_xAOD__JetContainer_SplitJetAux.
HLT_xAOD__JetContainer_SuperRoi
HLT_xAOD__JetContainer_SuperRoiAux.
HLT_xAOD__JetContainer_TrigHLTJetDSSelectorCollection
HLT_xAOD__JetContainer_TrigHLTJetDSSelectorCollectionAux.
HLT_xAOD__JetContainer_TrigTauJet
HLT_xAOD__JetContainer_TrigTauJetAux.
HLT_xAOD__JetContainer_a10r_tcemsubjesFS
HLT_xAOD__JetContainer_a10r_tcemsubjesFSAux.
HLT_xAOD__JetContainer_a10r_tcemsubjesISFS
HLT_xAOD__JetContainer_a10r_tcemsubjesISFSAux.
HLT_xAOD__JetContainer_a10tcemjesFS
HLT_xAOD__JetContainer_a10tcemjesFSAux.
HLT_xAOD__JetContainer_a10tcemnojcalibFS
HLT_xAOD__JetContainer_a10tcemnojcalibFSAux.
HLT_xAOD__JetContainer_a10tcemsubFS
HLT_xAOD__JetContainer_a10tcemsubFSAux.
HLT_xAOD__JetContainer_a10tcemsubjesFS
HLT_xAOD__JetContainer_a10tcemsubjesFSAux.
HLT_xAOD__JetContainer_a10tclcwjesFS
HLT_xAOD__JetContainer_a10tclcwjesFSAux.
HLT_xAOD__JetContainer_a10tclcwnojcalibFS
HLT_xAOD__JetContainer_a10tclcwnojcalibFSAux.
HLT_xAOD__JetContainer_a10tclcwsubFS
HLT_xAOD__JetContainer_a10tclcwsubFSAux.
HLT_xAOD__JetContainer_a10tclcwsubjesFS
HLT_xAOD__JetContainer_a10tclcwsubjesFSAux.
HLT_xAOD__JetContainer_a10ttclcwjesFS
HLT_xAOD__JetContainer_a10ttclcwjesFSAux.
HLT_xAOD__JetContainer_a10ttclcwnojcalibFS
HLT_xAOD__JetContainer_a10ttclcwnojcalibFSAux.
HLT_xAOD__JetContainer_a3ionemsubjesFS
HLT_xAOD__JetContainer_a3ionemsubjesFSAux.
HLT_xAOD__JetContainer_a3ionemsubjesISFS
HLT_xAOD__JetContainer_a3ionemsubjesISFSAux.
HLT_xAOD__JetContainer_a4ionemsubjesFS
HLT_xAOD__JetContainer_a4ionemsubjesFSAux.
HLT_xAOD__JetContainer_a4ionemsubjesISFS
HLT_xAOD__JetContainer_a4ionemsubjesISFSAux.
HLT_xAOD__JetContainer_a4tcemjesFS
HLT_xAOD__JetContainer_a4tcemjesFSAux.
HLT_xAOD__JetContainer_a4tcemnojcalibFS
HLT_xAOD__JetContainer_a4tcemnojcalibFSAux.
HLT_xAOD__JetContainer_a4tcemsubFS
HLT_xAOD__JetContainer_a4tcemsubFSAux.
HLT_xAOD__JetContainer_a4tcemsubjesFS
HLT_xAOD__JetContainer_a4tcemsubjesFSAux.
HLT_xAOD__JetContainer_a4tcemsubjesISFS
HLT_xAOD__JetContainer_a4tcemsubjesISFSAux.
HLT_xAOD__JetRoIContainer_L1TopoJet
HLT_xAOD__JetRoIContainer_L1TopoJetAux.
HLT_xAOD__L2CombinedMuonContainer_MuonL2CBInfo
HLT_xAOD__L2CombinedMuonContainer_MuonL2CBInfoAux.
HLT_xAOD__L2StandAloneMuonContainer_MuonL2SAInfo
HLT_xAOD__L2StandAloneMuonContainer_MuonL2SAInfoAux.
HLT_xAOD__MuonContainer_MuonEFInfo
HLT_xAOD__MuonContainer_MuonEFInfoAux.
HLT_xAOD__MuonContainer_MuonEFInfoAuxDyn.etcone20
HLT_xAOD__MuonContainer_MuonEFInfoAuxDyn.etcone30
HLT_xAOD__MuonContainer_MuonEFInfoAuxDyn.etcone40
HLT_xAOD__MuonContainer_MuonEFInfoAuxDyn.ptcone20
HLT_xAOD__MuonContainer_MuonEFInfoAuxDyn.ptcone30
HLT_xAOD__MuonContainer_MuonEFInfoAuxDyn.ptcone40
HLT_xAOD__MuonContainer_MuonEFInfoAuxDyn.ptvarcone20
HLT_xAOD__MuonContainer_MuonEFInfoAuxDyn.ptvarcone30
HLT_xAOD__MuonContainer_MuonEFInfoAuxDyn.ptvarcone40
HLT_xAOD__MuonContainer_MuonEFInfo_FullScan
HLT_xAOD__MuonContainer_MuonEFInfo_FullScanAux.
HLT_xAOD__MuonContainer_MuonEFInfo_FullScanAuxDyn.etcone20
HLT_xAOD__MuonContainer_MuonEFInfo_FullScanAuxDyn.etcone30
HLT_xAOD__MuonContainer_MuonEFInfo_FullScanAuxDyn.etcone40
HLT_xAOD__MuonContainer_MuonEFInfo_FullScanAuxDyn.ptcone20
HLT_xAOD__MuonContainer_MuonEFInfo_FullScanAuxDyn.ptcone30
HLT_xAOD__MuonContainer_MuonEFInfo_FullScanAuxDyn.ptcone40
HLT_xAOD__MuonContainer_MuonEFInfo_FullScanAuxDyn.ptvarcone20
HLT_xAOD__MuonContainer_MuonEFInfo_FullScanAuxDyn.ptvarcone30
HLT_xAOD__MuonContainer_MuonEFInfo_FullScanAuxDyn.ptvarcone40
HLT_xAOD__MuonContainer_MuonEFInfo_MSonlyTrackParticles_FullScan
HLT_xAOD__MuonContainer_MuonEFInfo_MSonlyTrackParticles_FullScanAux.
HLT_xAOD__MuonRoIContainer_L1TopoMuon
HLT_xAOD__MuonRoIContainer_L1TopoMuonAux.
HLT_xAOD__PhotonContainer_egamma_Iso_Photons
HLT_xAOD__PhotonContainer_egamma_Iso_PhotonsAux.
HLT_xAOD__PhotonContainer_egamma_Photons
HLT_xAOD__PhotonContainer_egamma_PhotonsAux.
HLT_xAOD__RoiDescriptorStore_SplitJet
HLT_xAOD__RoiDescriptorStore_SplitJetAux.
HLT_xAOD__RoiDescriptorStore_SuperRoi
HLT_xAOD__RoiDescriptorStore_SuperRoiAux.
HLT_xAOD__RoiDescriptorStore_forID
HLT_xAOD__RoiDescriptorStore_forID1
HLT_xAOD__RoiDescriptorStore_forID1Aux.
HLT_xAOD__RoiDescriptorStore_forID2
HLT_xAOD__RoiDescriptorStore_forID2Aux.
HLT_xAOD__RoiDescriptorStore_forID3
HLT_xAOD__RoiDescriptorStore_forID3Aux.
HLT_xAOD__RoiDescriptorStore_forIDAux.
HLT_xAOD__RoiDescriptorStore_forMS
HLT_xAOD__RoiDescriptorStore_forMSAux.
HLT_xAOD__RoiDescriptorStore_initialRoI
HLT_xAOD__RoiDescriptorStore_initialRoIAux.
HLT_xAOD__RoiDescriptorStore_secondaryRoI_EF
HLT_xAOD__RoiDescriptorStore_secondaryRoI_EFAux.
HLT_xAOD__RoiDescriptorStore_secondaryRoI_HLT
HLT_xAOD__RoiDescriptorStore_secondaryRoI_HLTAux.
HLT_xAOD__RoiDescriptorStore_secondaryRoI_L2
HLT_xAOD__RoiDescriptorStore_secondaryRoI_L2Aux.
HLT_xAOD__TauJetContainer_TrigTauRecMerged
HLT_xAOD__TauJetContainer_TrigTauRecMergedAux.
HLT_xAOD__TauJetContainer_TrigTauRecPreselection
HLT_xAOD__TauJetContainer_TrigTauRecPreselectionAux.
HLT_xAOD__TauTrackContainer_TrigTauRecMergedTracks
HLT_xAOD__TauTrackContainer_TrigTauRecMergedTracksAux.
HLT_xAOD__TauTrackContainer_TrigTauRecPreselectionTracks
HLT_xAOD__TauTrackContainer_TrigTauRecPreselectionTracksAux.
HLT_xAOD__TrackParticleContainer_GSFTrigTrackParticles
HLT_xAOD__TrackParticleContainer_GSFTrigTrackParticlesAux.
HLT_xAOD__TrackParticleContainer_InDetTrigTrackingxAODCnvIOTRT_CosmicsN_EFID
HLT_xAOD__TrackParticleContainer_InDetTrigTrackingxAODCnvIOTRT_CosmicsN_EFIDAux.
HLT_xAOD__TrackParticleContainer_InDetTrigTrackingxAODCnv_BjetPrmVtx_FTF
HLT_xAOD__TrackParticleContainer_InDetTrigTrackingxAODCnv_BjetPrmVtx_FTFAux.
HLT_xAOD__TrackParticleContainer_InDetTrigTrackingxAODCnv_BjetPrmVtx_FTFAuxDyn.vertexLink
HLT_xAOD__TrackParticleContainer_InDetTrigTrackingxAODCnv_Bjet_EFID
HLT_xAOD__TrackParticleContainer_InDetTrigTrackingxAODCnv_Bjet_EFIDAux.
HLT_xAOD__TrackParticleContainer_InDetTrigTrackingxAODCnv_Bjet_FTF
HLT_xAOD__TrackParticleContainer_InDetTrigTrackingxAODCnv_Bjet_FTFAux.
HLT_xAOD__TrackParticleContainer_InDetTrigTrackingxAODCnv_Bjet_FTFAuxDyn.vertexLink
HLT_xAOD__TrackParticleContainer_InDetTrigTrackingxAODCnv_Bjet_IDTrig
HLT_xAOD__TrackParticleContainer_InDetTrigTrackingxAODCnv_Bjet_IDTrigAux.
HLT_xAOD__TrackParticleContainer_InDetTrigTrackingxAODCnv_Bjet_IDTrigAuxDyn.vertexLink
HLT_xAOD__TrackParticleContainer_InDetTrigTrackingxAODCnv_BphysHighPt_IDTrig
HLT_xAOD__TrackParticleContainer_InDetTrigTrackingxAODCnv_BphysHighPt_IDTrigAux.
HLT_xAOD__TrackParticleContainer_InDetTrigTrackingxAODCnv_Bphysics_EFID
HLT_xAOD__TrackParticleContainer_InDetTrigTrackingxAODCnv_Bphysics_EFIDAux.
HLT_xAOD__TrackParticleContainer_InDetTrigTrackingxAODCnv_Bphysics_FTF
HLT_xAOD__TrackParticleContainer_InDetTrigTrackingxAODCnv_Bphysics_FTFAux.
HLT_xAOD__TrackParticleContainer_InDetTrigTrackingxAODCnv_Bphysics_FTFAuxDyn.vertexLink
HLT_xAOD__TrackParticleContainer_InDetTrigTrackingxAODCnv_Bphysics_IDTrig
HLT_xAOD__TrackParticleContainer_InDetTrigTrackingxAODCnv_Bphysics_IDTrigAux.
HLT_xAOD__TrackParticleContainer_InDetTrigTrackingxAODCnv_Bphysics_IDTrigAuxDyn.vertexLink
HLT_xAOD__TrackParticleContainer_InDetTrigTrackingxAODCnv_CosmicsN_EFID
HLT_xAOD__TrackParticleContainer_InDetTrigTrackingxAODCnv_CosmicsN_EFIDAux.
HLT_xAOD__TrackParticleContainer_InDetTrigTrackingxAODCnv_Electron_EFID
HLT_xAOD__TrackParticleContainer_InDetTrigTrackingxAODCnv_Electron_EFIDAux.
HLT_xAOD__TrackParticleContainer_InDetTrigTrackingxAODCnv_Electron_FTF
HLT_xAOD__TrackParticleContainer_InDetTrigTrackingxAODCnv_Electron_FTFAux.
HLT_xAOD__TrackParticleContainer_InDetTrigTrackingxAODCnv_Electron_FTFAuxDyn.vertexLink
HLT_xAOD__TrackParticleContainer_InDetTrigTrackingxAODCnv_Electron_IDTrig
HLT_xAOD__TrackParticleContainer_InDetTrigTrackingxAODCnv_Electron_IDTrigAux.
HLT_xAOD__TrackParticleContainer_InDetTrigTrackingxAODCnv_Electron_IDTrigAuxDyn.vertexLink
HLT_xAOD__TrackParticleContainer_InDetTrigTrackingxAODCnv_Electron_L2ID
HLT_xAOD__TrackParticleContainer_InDetTrigTrackingxAODCnv_Electron_L2IDAux.
HLT_xAOD__TrackParticleContainer_InDetTrigTrackingxAODCnv_FullScan_EFID
HLT_xAOD__TrackParticleContainer_InDetTrigTrackingxAODCnv_FullScan_EFIDAux.
HLT_xAOD__TrackParticleContainer_InDetTrigTrackingxAODCnv_FullScan_FTF
HLT_xAOD__TrackParticleContainer_InDetTrigTrackingxAODCnv_FullScan_FTFAux.
HLT_xAOD__TrackParticleContainer_InDetTrigTrackingxAODCnv_MuonIso_EFID
HLT_xAOD__TrackParticleContainer_InDetTrigTrackingxAODCnv_MuonIso_EFIDAux.
HLT_xAOD__TrackParticleContainer_InDetTrigTrackingxAODCnv_Muon_EFID
HLT_xAOD__TrackParticleContainer_InDetTrigTrackingxAODCnv_Muon_EFIDAux.
HLT_xAOD__TrackParticleContainer_InDetTrigTrackingxAODCnv_Muon_FTF
HLT_xAOD__TrackParticleContainer_InDetTrigTrackingxAODCnv_Muon_FTFAux.
HLT_xAOD__TrackParticleContainer_InDetTrigTrackingxAODCnv_Muon_FTFAuxDyn.vertexLink
HLT_xAOD__TrackParticleContainer_InDetTrigTrackingxAODCnv_Muon_IDTrig
HLT_xAOD__TrackParticleContainer_InDetTrigTrackingxAODCnv_Muon_IDTrigAux.
HLT_xAOD__TrackParticleContainer_InDetTrigTrackingxAODCnv_Muon_IDTrigAuxDyn.vertexLink
HLT_xAOD__TrackParticleContainer_InDetTrigTrackingxAODCnv_Photon_EFID
HLT_xAOD__TrackParticleContainer_InDetTrigTrackingxAODCnv_Photon_EFIDAux.
HLT_xAOD__TrackParticleContainer_InDetTrigTrackingxAODCnv_TauCore_FTF
HLT_xAOD__TrackParticleContainer_InDetTrigTrackingxAODCnv_TauCore_FTFAux.
HLT_xAOD__TrackParticleContainer_InDetTrigTrackingxAODCnv_TauCore_FTFAuxDyn.vertexLink
HLT_xAOD__TrackParticleContainer_InDetTrigTrackingxAODCnv_TauIso_FTF
HLT_xAOD__TrackParticleContainer_InDetTrigTrackingxAODCnv_TauIso_FTFAux.
HLT_xAOD__TrackParticleContainer_InDetTrigTrackingxAODCnv_TauIso_FTFAuxDyn.vertexLink
HLT_xAOD__TrackParticleContainer_InDetTrigTrackingxAODCnv_Tau_EFID
HLT_xAOD__TrackParticleContainer_InDetTrigTrackingxAODCnv_Tau_EFIDAux.
HLT_xAOD__TrackParticleContainer_InDetTrigTrackingxAODCnv_Tau_IDTrig
HLT_xAOD__TrackParticleContainer_InDetTrigTrackingxAODCnv_Tau_IDTrigAux.
HLT_xAOD__TrackParticleContainer_InDetTrigTrackingxAODCnv_Tau_IDTrigAuxDyn.vertexLink
HLT_xAOD__TrackParticleContainer_MuonEFInfo_CombTrackParticles
HLT_xAOD__TrackParticleContainer_MuonEFInfo_CombTrackParticlesAux.
HLT_xAOD__TrackParticleContainer_MuonEFInfo_CombTrackParticlesAuxDyn.vertexLink
HLT_xAOD__TrackParticleContainer_MuonEFInfo_CombTrackParticles_FullScan
HLT_xAOD__TrackParticleContainer_MuonEFInfo_CombTrackParticles_FullScanAux.
HLT_xAOD__TrackParticleContainer_MuonEFInfo_CombTrackParticles_FullScanAuxDyn.vertexLink
HLT_xAOD__TrackParticleContainer_MuonEFInfo_ExtrapTrackParticles
HLT_xAOD__TrackParticleContainer_MuonEFInfo_ExtrapTrackParticlesAux.
HLT_xAOD__TrackParticleContainer_MuonEFInfo_ExtrapTrackParticlesAuxDyn.vertexLink
HLT_xAOD__TrackParticleContainer_MuonEFInfo_ExtrapTrackParticles_FullScan
HLT_xAOD__TrackParticleContainer_MuonEFInfo_ExtrapTrackParticles_FullScanAux.
HLT_xAOD__TrackParticleContainer_MuonEFInfo_ExtrapTrackParticles_FullScanAuxDyn.vertexLink
HLT_xAOD__TrigBphysContainer_EFBMuMuFex
HLT_xAOD__TrigBphysContainer_EFBMuMuFexAux.
HLT_xAOD__TrigBphysContainer_EFBMuMuXFex
HLT_xAOD__TrigBphysContainer_EFBMuMuXFexAux.
HLT_xAOD__TrigBphysContainer_EFBMuMuXFex_X
HLT_xAOD__TrigBphysContainer_EFBMuMuXFex_XAux.
HLT_xAOD__TrigBphysContainer_EFDsPhiPiFex
HLT_xAOD__TrigBphysContainer_EFDsPhiPiFexAux.
HLT_xAOD__TrigBphysContainer_EFMuPairs
HLT_xAOD__TrigBphysContainer_EFMuPairsAux.
HLT_xAOD__TrigBphysContainer_EFMultiMuFex
HLT_xAOD__TrigBphysContainer_EFMultiMuFexAux.
HLT_xAOD__TrigBphysContainer_EFTrackMass
HLT_xAOD__TrigBphysContainer_EFTrackMassAux.
HLT_xAOD__TrigBphysContainer_L2BMuMuFex
HLT_xAOD__TrigBphysContainer_L2BMuMuFexAux.
HLT_xAOD__TrigBphysContainer_L2BMuMuXFex
HLT_xAOD__TrigBphysContainer_L2BMuMuXFexAux.
HLT_xAOD__TrigBphysContainer_L2DiMuXFex
HLT_xAOD__TrigBphysContainer_L2DiMuXFexAux.
HLT_xAOD__TrigBphysContainer_L2DsPhiPiFexDs
HLT_xAOD__TrigBphysContainer_L2DsPhiPiFexDsAux.
HLT_xAOD__TrigBphysContainer_L2DsPhiPiFexPhi
HLT_xAOD__TrigBphysContainer_L2DsPhiPiFexPhiAux.
HLT_xAOD__TrigBphysContainer_L2JpsieeFex
HLT_xAOD__TrigBphysContainer_L2JpsieeFexAux.
HLT_xAOD__TrigBphysContainer_L2MultiMuFex
HLT_xAOD__TrigBphysContainer_L2MultiMuFexAux.
HLT_xAOD__TrigBphysContainer_L2TrackMass
HLT_xAOD__TrigBphysContainer_L2TrackMassAux.
HLT_xAOD__TrigCompositeContainer_ExpressInfo_HLT
HLT_xAOD__TrigCompositeContainer_ExpressInfo_HLTAux.
HLT_xAOD__TrigCompositeContainer_L1TopoComposite
HLT_xAOD__TrigCompositeContainer_L1TopoCompositeAux.
HLT_xAOD__TrigCompositeContainer_L1TopoMET
HLT_xAOD__TrigCompositeContainer_L1TopoMETAux.
HLT_xAOD__TrigCompositeContainer_MuonRoICluster
HLT_xAOD__TrigCompositeContainer_MuonRoIClusterAux.
HLT_xAOD__TrigCompositeContainer_MuonRoIClusterAuxDyn.ClusterEta
HLT_xAOD__TrigCompositeContainer_MuonRoIClusterAuxDyn.ClusterPhi
HLT_xAOD__TrigCompositeContainer_MuonRoIClusterAuxDyn.nJets
HLT_xAOD__TrigCompositeContainer_MuonRoIClusterAuxDyn.nRoIs
HLT_xAOD__TrigCompositeContainer_MuonRoIClusterAuxDyn.nTrks
HLT_xAOD__TrigCompositeContainer_TrigEFDielectronMassFex
HLT_xAOD__TrigCompositeContainer_TrigEFDielectronMassFexAux.
HLT_xAOD__TrigCompositeContainer_TrigEFDielectronMassFexAuxDyn.mass
HLT_xAOD__TrigElectronContainer_L2ElectronFex
HLT_xAOD__TrigElectronContainer_L2ElectronFexAux.
HLT_xAOD__TrigMissingETContainer_TrigEFMissingET
HLT_xAOD__TrigMissingETContainer_TrigEFMissingETAux.
HLT_xAOD__TrigMissingETContainer_TrigEFMissingET_mht
HLT_xAOD__TrigMissingETContainer_TrigEFMissingET_mhtAux.
HLT_xAOD__TrigMissingETContainer_TrigEFMissingET_topocl_PUC
HLT_xAOD__TrigMissingETContainer_TrigEFMissingET_topocl_PUCAux.
HLT_xAOD__TrigPassBitsContainer_passbits
HLT_xAOD__TrigPassBitsContainer_passbitsAux.
HLT_xAOD__TrigPhotonContainer_L2PhotonFex
HLT_xAOD__TrigPhotonContainer_L2PhotonFexAux.
HLT_xAOD__TrigRNNOutputContainer_TrigRingerNeuralFex
HLT_xAOD__TrigRNNOutputContainer_TrigRingerNeuralFexAux.
HLT_xAOD__TrigSpacePointCountsContainer_spacepoints
HLT_xAOD__TrigSpacePointCountsContainer_spacepointsAux.
HLT_xAOD__TrigT2MbtsBitsContainer_T2Mbts
HLT_xAOD__TrigT2MbtsBitsContainer_T2MbtsAux.
HLT_xAOD__TrigT2ZdcSignalsContainer_zdcsignals
HLT_xAOD__TrigT2ZdcSignalsContainer_zdcsignalsAux.
HLT_xAOD__TrigTrackCountsContainer_trackcounts
HLT_xAOD__TrigTrackCountsContainer_trackcountsAux.
HLT_xAOD__TrigVertexCountsContainer_vertexcounts
HLT_xAOD__TrigVertexCountsContainer_vertexcountsAux.
HLT_xAOD__VertexContainer_BjetSecondaryVertexFex
HLT_xAOD__VertexContainer_BjetSecondaryVertexFexAux.
HLT_xAOD__VertexContainer_EFHistoPrmVtx
HLT_xAOD__VertexContainer_EFHistoPrmVtxAux.
HLT_xAOD__VertexContainer_SecondaryVertex
HLT_xAOD__VertexContainer_SecondaryVertexAux.
HLT_xAOD__VertexContainer_xPrimVx
HLT_xAOD__VertexContainer_xPrimVxAux.
InDetDisappearingTrackParticles
InDetDisappearingTrackParticlesAux.
InDetDisappearingTrackParticlesAuxDyn.TRTdEdx
InDetDisappearingTrackParticlesAuxDyn.TRTdEdxUsedHits
InDetDisappearingTrackParticlesAuxDyn.eProbabilityNN
InDetDisappearingTrackParticlesAuxDyn.nBC_meas
InDetDisappearingTrackParticlesAuxDyn.trackLink
InDetForwardTrackParticles
InDetForwardTrackParticlesAux.
InDetForwardTrackParticlesAuxDyn.TRTdEdx
InDetForwardTrackParticlesAuxDyn.TRTdEdxUsedHits
InDetForwardTrackParticlesAuxDyn.eProbabilityNN
InDetForwardTrackParticlesAuxDyn.nBC_meas
InDetForwardTrackParticlesAuxDyn.trackLink
InDetLargeD0TrackParticles
InDetLargeD0TrackParticlesAux.
InDetLargeD0TrackParticlesAuxDyn.TRTdEdx
InDetLargeD0TrackParticlesAuxDyn.TRTdEdxUsedHits
InDetLargeD0TrackParticlesAuxDyn.eProbabilityNN
InDetLargeD0TrackParticlesAuxDyn.nBC_meas
InDetLargeD0TrackParticlesAuxDyn.trackLink
InDetTrackParticles
InDetTrackParticlesAssociatedClusters
InDetTrackParticlesAssociatedClustersAux.
InDetTrackParticlesAssociatedClustersAuxDyn.CellLink
InDetTrackParticlesAssociatedClusters_links
InDetTrackParticlesAux.
InDetTrackParticlesAuxDyn.TRTdEdx
InDetTrackParticlesAuxDyn.TRTdEdxUsedHits
InDetTrackParticlesAuxDyn.eProbabilityNN
InDetTrackParticlesAuxDyn.nBC_meas
InDetTrackParticlesAuxDyn.trackLink
InDetTrackParticlesClusterAssociations
InDetTrackParticlesClusterAssociationsAux.
IncompleteLumiBlocks
IncompleteLumiBlocksAux.
IsCalibration
IsSimulation
IsTestBeam
JetETMissChargedParticleFlowObjects
JetETMissChargedParticleFlowObjectsAux.
JetETMissChargedParticleFlowObjectsAuxDyn.FE_ElectronLinks
JetETMissChargedParticleFlowObjectsAuxDyn.FE_MuonLinks
JetETMissChargedParticleFlowObjectsAuxDyn.FE_PhotonLinks
JetETMissChargedParticleFlowObjectsAuxDyn.FE_TauLinks
JetETMissChargedParticleFlowObjectsAuxDyn.IsInDenseEnvironment
JetETMissChargedParticleFlowObjectsAuxDyn.TracksExpectedEnergyDeposit
JetETMissLCNeutralParticleFlowObjects
JetETMissLCNeutralParticleFlowObjectsAux.
JetETMissLCNeutralParticleFlowObjectsAuxDyn.eta
JetETMissLCNeutralParticleFlowObjectsAuxDyn.m
JetETMissLCNeutralParticleFlowObjectsAuxDyn.phi
JetETMissLCNeutralParticleFlowObjectsAuxDyn.pt
JetETMissNeutralParticleFlowObjects
JetETMissNeutralParticleFlowObjectsAux.
JetETMissNeutralParticleFlowObjectsAuxDyn.AVG_LAR_Q
JetETMissNeutralParticleFlowObjectsAuxDyn.AVG_TILE_Q
JetETMissNeutralParticleFlowObjectsAuxDyn.BADLARQ_FRAC
JetETMissNeutralParticleFlowObjectsAuxDyn.CENTER_LAMBDA
JetETMissNeutralParticleFlowObjectsAuxDyn.CENTER_MAG
JetETMissNeutralParticleFlowObjectsAuxDyn.EM_PROBABILITY
JetETMissNeutralParticleFlowObjectsAuxDyn.ENG_BAD_CELLS
JetETMissNeutralParticleFlowObjectsAuxDyn.ENG_POS
JetETMissNeutralParticleFlowObjectsAuxDyn.FE_ElectronLinks
JetETMissNeutralParticleFlowObjectsAuxDyn.FE_MuonLinks
JetETMissNeutralParticleFlowObjectsAuxDyn.FE_PhotonLinks
JetETMissNeutralParticleFlowObjectsAuxDyn.FE_TauLinks
JetETMissNeutralParticleFlowObjectsAuxDyn.FE_efrac_matched_muon
JetETMissNeutralParticleFlowObjectsAuxDyn.FE_nMatchedMuons
JetETMissNeutralParticleFlowObjectsAuxDyn.ISOLATION
JetETMissNeutralParticleFlowObjectsAuxDyn.LAYERENERGY_EMB1
JetETMissNeutralParticleFlowObjectsAuxDyn.LAYERENERGY_EMB2
JetETMissNeutralParticleFlowObjectsAuxDyn.LAYERENERGY_EMB3
JetETMissNeutralParticleFlowObjectsAuxDyn.LAYERENERGY_EME1
JetETMissNeutralParticleFlowObjectsAuxDyn.LAYERENERGY_EME2
JetETMissNeutralParticleFlowObjectsAuxDyn.LAYERENERGY_EME3
JetETMissNeutralParticleFlowObjectsAuxDyn.LAYERENERGY_FCAL0
JetETMissNeutralParticleFlowObjectsAuxDyn.LAYERENERGY_FCAL1
JetETMissNeutralParticleFlowObjectsAuxDyn.LAYERENERGY_FCAL2
JetETMissNeutralParticleFlowObjectsAuxDyn.LAYERENERGY_HEC0
JetETMissNeutralParticleFlowObjectsAuxDyn.LAYERENERGY_HEC1
JetETMissNeutralParticleFlowObjectsAuxDyn.LAYERENERGY_HEC2
JetETMissNeutralParticleFlowObjectsAuxDyn.LAYERENERGY_HEC3
JetETMissNeutralParticleFlowObjectsAuxDyn.LAYERENERGY_MINIFCAL0
JetETMissNeutralParticleFlowObjectsAuxDyn.LAYERENERGY_MINIFCAL1
JetETMissNeutralParticleFlowObjectsAuxDyn.LAYERENERGY_MINIFCAL2
JetETMissNeutralParticleFlowObjectsAuxDyn.LAYERENERGY_MINIFCAL3
JetETMissNeutralParticleFlowObjectsAuxDyn.LAYERENERGY_PreSamplerB
JetETMissNeutralParticleFlowObjectsAuxDyn.LAYERENERGY_PreSamplerE
JetETMissNeutralParticleFlowObjectsAuxDyn.LAYERENERGY_TILE0
JetETMissNeutralParticleFlowObjectsAuxDyn.LAYERENERGY_TileBar0
JetETMissNeutralParticleFlowObjectsAuxDyn.LAYERENERGY_TileBar1
JetETMissNeutralParticleFlowObjectsAuxDyn.LAYERENERGY_TileBar2
JetETMissNeutralParticleFlowObjectsAuxDyn.LAYERENERGY_TileExt0
JetETMissNeutralParticleFlowObjectsAuxDyn.LAYERENERGY_TileExt1
JetETMissNeutralParticleFlowObjectsAuxDyn.LAYERENERGY_TileExt2
JetETMissNeutralParticleFlowObjectsAuxDyn.LAYERENERGY_TileGap1
JetETMissNeutralParticleFlowObjectsAuxDyn.LAYERENERGY_TileGap2
JetETMissNeutralParticleFlowObjectsAuxDyn.LAYERENERGY_TileGap3
JetETMissNeutralParticleFlowObjectsAuxDyn.SECOND_LAMBDA
JetETMissNeutralParticleFlowObjectsAuxDyn.SECOND_R
JetETMissNeutralParticleFlowObjectsAuxDyn.TIMING
L1TopoRawData
L1TopoRawDataAux.
LArNoisyROSummary
LRTElectrons
LRTElectronsAux.
LRTElectronsAuxDyn.LHLoose
LRTElectronsAuxDyn.LHMedium
LRTElectronsAuxDyn.LHTight
LRTElectronsAuxDyn.LHValue
LRTElectronsAuxDyn.Loose
LRTElectronsAuxDyn.Medium
LRTElectronsAuxDyn.Tight
LRTElectronsAuxDyn.ambiguityType
LRTElectronsAuxDyn.asy1
LRTElectronsAuxDyn.barys1
LRTElectronsAuxDyn.deltaEta1PearDistortion
LRTElectronsAuxDyn.e1152
LRTElectronsAuxDyn.e132
LRTElectronsAuxDyn.e233
LRTElectronsAuxDyn.e235
LRTElectronsAuxDyn.e237
LRTElectronsAuxDyn.e255
LRTElectronsAuxDyn.e2ts1
LRTElectronsAuxDyn.e2tsts1
LRTElectronsAuxDyn.ecore
LRTElectronsAuxDyn.ehad1
LRTElectronsAuxDyn.emaxs1
LRTElectronsAuxDyn.emins1
LRTElectronsAuxDyn.ethad
LRTElectronsAuxDyn.ethad1
LRTElectronsAuxDyn.pos
LRTElectronsAuxDyn.pos7
LRTElectronsAuxDyn.poscs1
LRTElectronsAuxDyn.poscs2
LRTElectronsAuxDyn.r33over37allcalo
LRTElectronsAuxDyn.widths1
LRTElectronsAuxDyn.widths2
LRTGSFTrackParticles
LRTGSFTrackParticlesAux.
LRTGSFTrackParticlesAuxDyn.QoverPLM
LRTGSFTrackParticlesAuxDyn.TRTdEdx
LRTGSFTrackParticlesAuxDyn.TRTdEdxUsedHits
LRTGSFTrackParticlesAuxDyn.eProbabilityNN
LRTGSFTrackParticlesAuxDyn.originalTrackParticle
LRTGSFTrackParticlesAuxDyn.parameterPX
LRTGSFTrackParticlesAuxDyn.parameterPY
LRTGSFTrackParticlesAuxDyn.parameterPZ
LRTGSFTrackParticlesAuxDyn.parameterPosition
LRTGSFTrackParticlesAuxDyn.parameterX
LRTGSFTrackParticlesAuxDyn.parameterY
LRTGSFTrackParticlesAuxDyn.parameterZ
LRTGSFTrackParticlesAuxDyn.trackLink
LRTGSFTrackParticlesAuxDyn.trackParameterCovarianceMatrices
LRTegammaClusters
LRTegammaClustersAux.
LRTegammaClustersAuxDyn.BadChannelList
LRTegammaClustersAuxDyn.CellLink
LRTegammaClustersAuxDyn.ETA1CALOFRAME
LRTegammaClustersAuxDyn.ETA2CALOFRAME
LRTegammaClustersAuxDyn.ETACALOFRAME
LRTegammaClustersAuxDyn.PHI1CALOFRAME
LRTegammaClustersAuxDyn.PHI2CALOFRAME
LRTegammaClustersAuxDyn.PHICALOFRAME
LRTegammaClustersAuxDyn.constituentClusterLinks
LRTegammaClustersAuxDyn.emax_sampl
LRTegammaClustersAuxDyn.eta_sampl
LRTegammaClustersAuxDyn.etamax_sampl
LRTegammaClustersAuxDyn.phi_sampl
LRTegammaClustersAuxDyn.phimax_sampl
LRTegammaClusters_links
LVL1EmTauRoIs
LVL1EmTauRoIsAux.
LVL1EnergySumRoI
LVL1EnergySumRoIAux.
LVL1JetEtRoI
LVL1JetEtRoIAux.
LVL1JetRoIs
LVL1JetRoIsAux.
LVL1MuonRoIs
LVL1MuonRoIsAux.
LumiBlockN
MBTSContainer
MSDisplacedVertex
MSDisplacedVertexAux.
MSOnlyExtraPolatedMuonsLRTTrackParticles
MSOnlyExtraPolatedMuonsLRTTrackParticlesAux.
MSOnlyExtraPolatedMuonsLRTTrackParticlesAuxDyn.TRTdEdx
MSOnlyExtraPolatedMuonsLRTTrackParticlesAuxDyn.TRTdEdxUsedHits
MSOnlyExtraPolatedMuonsLRTTrackParticlesAuxDyn.alignEffectChId
MSOnlyExtraPolatedMuonsLRTTrackParticlesAuxDyn.alignEffectDeltaAngle
MSOnlyExtraPolatedMuonsLRTTrackParticlesAuxDyn.alignEffectDeltaTrans
MSOnlyExtraPolatedMuonsLRTTrackParticlesAuxDyn.alignEffectSigmaDeltaAngle
MSOnlyExtraPolatedMuonsLRTTrackParticlesAuxDyn.alignEffectSigmaDeltaTrans
MSOnlyExtraPolatedMuonsLRTTrackParticlesAuxDyn.deltaphi_0
MSOnlyExtraPolatedMuonsLRTTrackParticlesAuxDyn.deltaphi_1
MSOnlyExtraPolatedMuonsLRTTrackParticlesAuxDyn.deltatheta_0
MSOnlyExtraPolatedMuonsLRTTrackParticlesAuxDyn.deltatheta_1
MSOnlyExtraPolatedMuonsLRTTrackParticlesAuxDyn.eProbabilityNN
MSOnlyExtraPolatedMuonsLRTTrackParticlesAuxDyn.parameterPX
MSOnlyExtraPolatedMuonsLRTTrackParticlesAuxDyn.parameterPY
MSOnlyExtraPolatedMuonsLRTTrackParticlesAuxDyn.parameterPZ
MSOnlyExtraPolatedMuonsLRTTrackParticlesAuxDyn.parameterPosition
MSOnlyExtraPolatedMuonsLRTTrackParticlesAuxDyn.parameterX
MSOnlyExtraPolatedMuonsLRTTrackParticlesAuxDyn.parameterY
MSOnlyExtraPolatedMuonsLRTTrackParticlesAuxDyn.parameterZ
MSOnlyExtraPolatedMuonsLRTTrackParticlesAuxDyn.sigmadeltaphi_0
MSOnlyExtraPolatedMuonsLRTTrackParticlesAuxDyn.sigmadeltaphi_1
MSOnlyExtraPolatedMuonsLRTTrackParticlesAuxDyn.sigmadeltatheta_0
MSOnlyExtraPolatedMuonsLRTTrackParticlesAuxDyn.sigmadeltatheta_1
MSOnlyExtraPolatedMuonsLRTTrackParticlesAuxDyn.trackLink
MSOnlyExtraPolatedMuonsLRTTrackParticlesAuxDyn.trackParameterCovarianceMatrices
MSOnlyExtrapolatedMuonTrackParticles
MSOnlyExtrapolatedMuonTrackParticlesAux.
MSOnlyExtrapolatedMuonTrackParticlesAuxDyn.TRTdEdx
MSOnlyExtrapolatedMuonTrackParticlesAuxDyn.TRTdEdxUsedHits
MSOnlyExtrapolatedMuonTrackParticlesAuxDyn.alignEffectChId
MSOnlyExtrapolatedMuonTrackParticlesAuxDyn.alignEffectDeltaAngle
MSOnlyExtrapolatedMuonTrackParticlesAuxDyn.alignEffectDeltaTrans
MSOnlyExtrapolatedMuonTrackParticlesAuxDyn.alignEffectSigmaDeltaAngle
MSOnlyExtrapolatedMuonTrackParticlesAuxDyn.alignEffectSigmaDeltaTrans
MSOnlyExtrapolatedMuonTrackParticlesAuxDyn.deltaphi_0
MSOnlyExtrapolatedMuonTrackParticlesAuxDyn.deltaphi_1
MSOnlyExtrapolatedMuonTrackParticlesAuxDyn.deltatheta_0
MSOnlyExtrapolatedMuonTrackParticlesAuxDyn.deltatheta_1
MSOnlyExtrapolatedMuonTrackParticlesAuxDyn.eProbabilityNN
MSOnlyExtrapolatedMuonTrackParticlesAuxDyn.parameterPX
MSOnlyExtrapolatedMuonTrackParticlesAuxDyn.parameterPY
MSOnlyExtrapolatedMuonTrackParticlesAuxDyn.parameterPZ
MSOnlyExtrapolatedMuonTrackParticlesAuxDyn.parameterPosition
MSOnlyExtrapolatedMuonTrackParticlesAuxDyn.parameterX
MSOnlyExtrapolatedMuonTrackParticlesAuxDyn.parameterY
MSOnlyExtrapolatedMuonTrackParticlesAuxDyn.parameterZ
MSOnlyExtrapolatedMuonTrackParticlesAuxDyn.sigmadeltaphi_0
MSOnlyExtrapolatedMuonTrackParticlesAuxDyn.sigmadeltaphi_1
MSOnlyExtrapolatedMuonTrackParticlesAuxDyn.sigmadeltatheta_0
MSOnlyExtrapolatedMuonTrackParticlesAuxDyn.sigmadeltatheta_1
MSOnlyExtrapolatedMuonTrackParticlesAuxDyn.trackLink
MSOnlyExtrapolatedMuonTrackParticlesAuxDyn.trackParameterCovarianceMatrices
MSonlyTracklets
MSonlyTrackletsAux.
McChannel
MuonClusterCollection
MuonClusterCollectionAux.
MuonClusterCollectionAuxDyn.CellLink
MuonClusterCollectionAuxDyn.constituentClusterLinks
MuonClusterCollectionAuxDyn.eta_sampl
MuonClusterCollectionAuxDyn.phi_sampl
MuonClusterCollection_links
MuonSegments
MuonSegmentsAux.
MuonSegmentsAuxDyn.clusterTime
MuonSegmentsAuxDyn.clusterTimeError
MuonSegmentsAuxDyn.clusterTimeValid
MuonSegmentsAuxDyn.muonSegment
MuonSpectrometerTrackParticles
MuonSpectrometerTrackParticlesAux.
MuonSpectrometerTrackParticlesAuxDyn.TRTdEdx
MuonSpectrometerTrackParticlesAuxDyn.TRTdEdxUsedHits
MuonSpectrometerTrackParticlesAuxDyn.eProbabilityNN
MuonSpectrometerTrackParticlesAuxDyn.parameterPX
MuonSpectrometerTrackParticlesAuxDyn.parameterPY
MuonSpectrometerTrackParticlesAuxDyn.parameterPZ
MuonSpectrometerTrackParticlesAuxDyn.parameterPosition
MuonSpectrometerTrackParticlesAuxDyn.parameterX
MuonSpectrometerTrackParticlesAuxDyn.parameterY
MuonSpectrometerTrackParticlesAuxDyn.parameterZ
MuonSpectrometerTrackParticlesAuxDyn.trackLink
MuonSpectrometerTrackParticlesAuxDyn.trackParameterCovarianceMatrices
Muons
MuonsAux.
MuonsAuxDyn.CT_EL_Type
MuonsAuxDyn.CT_ET_FSRCandidateEnergy
MuonsAuxDyn.ClusterInfo_deltaR
MuonsAuxDyn.ET_Core
MuonsAuxDyn.ET_EMCore
MuonsAuxDyn.ET_HECCore
MuonsAuxDyn.ET_TileCore
MuonsAuxDyn.FSR_CandidateEnergy
MuonsAuxDyn.chargedFELinks
MuonsAuxDyn.combinedTrackOutBoundsPrecisionHits
MuonsAuxDyn.d0_staco
MuonsAuxDyn.extendedClosePrecisionHits
MuonsAuxDyn.extendedOutBoundsPrecisionHits
MuonsAuxDyn.innerClosePrecisionHits
MuonsAuxDyn.innerOutBoundsPrecisionHits
MuonsAuxDyn.isEndcapGoodLayers
MuonsAuxDyn.isSmallGoodSectors
MuonsAuxDyn.middleClosePrecisionHits
MuonsAuxDyn.middleOutBoundsPrecisionHits
MuonsAuxDyn.muon_efrac_matched_FE
MuonsAuxDyn.nUnspoiledCscHits
MuonsAuxDyn.neflowisol20
MuonsAuxDyn.neflowisol30
MuonsAuxDyn.neflowisol40
MuonsAuxDyn.neflowisolCorrBitset
MuonsAuxDyn.neflowisolcoreConeEnergyCorrection
MuonsAuxDyn.neutralFELinks
MuonsAuxDyn.numEnergyLossPerTrack
MuonsAuxDyn.numberOfGoodPrecisionLayers
MuonsAuxDyn.outerClosePrecisionHits
MuonsAuxDyn.outerOutBoundsPrecisionHits
MuonsAuxDyn.phi0_staco
MuonsAuxDyn.ptcone20
MuonsAuxDyn.ptcone30
MuonsAuxDyn.ptcone40
MuonsAuxDyn.ptconeCorrBitset
MuonsAuxDyn.ptconecoreTrackPtrCorrection
MuonsAuxDyn.ptvarcone20
MuonsAuxDyn.ptvarcone30
MuonsAuxDyn.ptvarcone40
MuonsAuxDyn.qOverPErr_staco
MuonsAuxDyn.qOverP_staco
MuonsAuxDyn.theta_staco
MuonsAuxDyn.topoetcone20
MuonsAuxDyn.topoetcone30
MuonsAuxDyn.topoetcone40
MuonsAuxDyn.topoetconeCorrBitset
MuonsAuxDyn.topoetconecoreConeEnergyCorrection
MuonsAuxDyn.z0_staco
MuonsLRT
MuonsLRTAux.
MuonsLRTAuxDyn.CT_EL_Type
MuonsLRTAuxDyn.CT_ET_FSRCandidateEnergy
MuonsLRTAuxDyn.ET_Core
MuonsLRTAuxDyn.ET_EMCore
MuonsLRTAuxDyn.ET_HECCore
MuonsLRTAuxDyn.ET_TileCore
MuonsLRTAuxDyn.FSR_CandidateEnergy
MuonsLRTAuxDyn.combinedTrackOutBoundsPrecisionHits
MuonsLRTAuxDyn.d0_staco
MuonsLRTAuxDyn.extendedClosePrecisionHits
MuonsLRTAuxDyn.extendedOutBoundsPrecisionHits
MuonsLRTAuxDyn.innerClosePrecisionHits
MuonsLRTAuxDyn.innerOutBoundsPrecisionHits
MuonsLRTAuxDyn.isEndcapGoodLayers
MuonsLRTAuxDyn.isSmallGoodSectors
MuonsLRTAuxDyn.middleClosePrecisionHits
MuonsLRTAuxDyn.middleOutBoundsPrecisionHits
MuonsLRTAuxDyn.nUnspoiledCscHits
MuonsLRTAuxDyn.numEnergyLossPerTrack
MuonsLRTAuxDyn.numberOfGoodPrecisionLayers
MuonsLRTAuxDyn.outerClosePrecisionHits
MuonsLRTAuxDyn.outerOutBoundsPrecisionHits
MuonsLRTAuxDyn.phi0_staco
MuonsLRTAuxDyn.qOverPErr_staco
MuonsLRTAuxDyn.qOverP_staco
MuonsLRTAuxDyn.theta_staco
MuonsLRTAuxDyn.z0_staco
NCB_MuonSegments
NCB_MuonSegmentsAux.
NCB_MuonSegmentsAuxDyn.clusterTime
NCB_MuonSegmentsAuxDyn.clusterTimeError
NCB_MuonSegmentsAuxDyn.clusterTimeValid
NCB_MuonSegmentsAuxDyn.muonSegment
NeutralParticleFlowIsoCentralEventShape
NeutralParticleFlowIsoCentralEventShapeAux.
NeutralParticleFlowIsoCentralEventShapeAuxDyn.Density
NeutralParticleFlowIsoCentralEventShapeAuxDyn.DensityArea
NeutralParticleFlowIsoCentralEventShapeAuxDyn.DensitySigma
NeutralParticleFlowIsoForwardEventShape
NeutralParticleFlowIsoForwardEventShapeAux.
NeutralParticleFlowIsoForwardEventShapeAuxDyn.Density
NeutralParticleFlowIsoForwardEventShapeAuxDyn.DensityArea
NeutralParticleFlowIsoForwardEventShapeAuxDyn.DensitySigma
Photons
PhotonsAux.
PhotonsAuxDyn.Loose
PhotonsAuxDyn.Tight
PhotonsAuxDyn.ambiguityLink
PhotonsAuxDyn.ambiguityType
PhotonsAuxDyn.asy1
PhotonsAuxDyn.barys1
PhotonsAuxDyn.chargedFELinks
PhotonsAuxDyn.core57cellsEnergyCorrection
PhotonsAuxDyn.e1152
PhotonsAuxDyn.e132
PhotonsAuxDyn.e233
PhotonsAuxDyn.e235
PhotonsAuxDyn.e237
PhotonsAuxDyn.e255
PhotonsAuxDyn.e2ts1
PhotonsAuxDyn.e2tsts1
PhotonsAuxDyn.ecore
PhotonsAuxDyn.ehad1
PhotonsAuxDyn.emaxs1
PhotonsAuxDyn.emins1
PhotonsAuxDyn.ethad
PhotonsAuxDyn.ethad1
PhotonsAuxDyn.neutralFELinks
PhotonsAuxDyn.pos
PhotonsAuxDyn.pos7
PhotonsAuxDyn.poscs1
PhotonsAuxDyn.poscs2
PhotonsAuxDyn.ptcone20
PhotonsAuxDyn.ptcone30
PhotonsAuxDyn.r33over37allcalo
PhotonsAuxDyn.topoetcone20
PhotonsAuxDyn.topoetcone20ptCorrection
PhotonsAuxDyn.topoetcone30
PhotonsAuxDyn.topoetcone30ptCorrection
PhotonsAuxDyn.topoetcone40
PhotonsAuxDyn.topoetcone40ptCorrection
PhotonsAuxDyn.widths1
PhotonsAuxDyn.widths2
PrimaryVertices
PrimaryVerticesAux.
PrimaryVerticesAuxDyn.sumPt2
RunNumber
SlowMuons
SlowMuonsAux.
SlowMuonsAuxDyn.hitEnergy
SlowMuonsAuxDyn.hitError
SlowMuonsAuxDyn.hitIdentifier
SlowMuonsAuxDyn.hitPositionX
SlowMuonsAuxDyn.hitPositionY
SlowMuonsAuxDyn.hitPositionZ
SlowMuonsAuxDyn.hitPropagationTime
SlowMuonsAuxDyn.hitShift
SlowMuonsAuxDyn.hitTOF
SlowMuonsAuxDyn.hitTechnology
Staus
StausAux.
StausAuxDyn.CT_EL_Type
StausAuxDyn.CT_ET_FSRCandidateEnergy
StausAuxDyn.ET_Core
StausAuxDyn.ET_EMCore
StausAuxDyn.ET_HECCore
StausAuxDyn.ET_TileCore
StausAuxDyn.FSR_CandidateEnergy
StausAuxDyn.combinedTrackOutBoundsPrecisionHits
StausAuxDyn.d0_staco
StausAuxDyn.extendedClosePrecisionHits
StausAuxDyn.extendedOutBoundsPrecisionHits
StausAuxDyn.innerClosePrecisionHits
StausAuxDyn.innerOutBoundsPrecisionHits
StausAuxDyn.isEndcapGoodLayers
StausAuxDyn.isSmallGoodSectors
StausAuxDyn.middleClosePrecisionHits
StausAuxDyn.middleOutBoundsPrecisionHits
StausAuxDyn.nUnspoiledCscHits
StausAuxDyn.numEnergyLossPerTrack
StausAuxDyn.numberOfGoodPrecisionLayers
StausAuxDyn.outerClosePrecisionHits
StausAuxDyn.outerOutBoundsPrecisionHits
StausAuxDyn.phi0_staco
StausAuxDyn.qOverPErr_staco
StausAuxDyn.qOverP_staco
StausAuxDyn.theta_staco
StausAuxDyn.z0_staco
StreamAOD
TauFinalPi0s
TauFinalPi0sAux.
TauFinalPi0sAuxDyn.pi0PFOLinks
TauHadronicParticleFlowObjects
TauHadronicParticleFlowObjectsAux.
TauJets
TauJetsAux.
TauJetsAuxDyn.ClusterTotalEnergy
TauJetsAuxDyn.ClustersMeanCenterLambda
TauJetsAuxDyn.ClustersMeanEMProbability
TauJetsAuxDyn.ClustersMeanFirstEngDens
TauJetsAuxDyn.ClustersMeanPresamplerFrac
TauJetsAuxDyn.ClustersMeanSecondLambda
TauJetsAuxDyn.EMFRACTIONATEMSCALE_MOVEE3
TauJetsAuxDyn.EMFracFixed
TauJetsAuxDyn.GhostMuonSegmentCount
TauJetsAuxDyn.LeadClusterFrac
TauJetsAuxDyn.NNDecayMode
TauJetsAuxDyn.NNDecayModeProb_1p0n
TauJetsAuxDyn.NNDecayModeProb_1p1n
TauJetsAuxDyn.NNDecayModeProb_1pXn
TauJetsAuxDyn.NNDecayModeProb_3p0n
TauJetsAuxDyn.NNDecayModeProb_3pXn
TauJetsAuxDyn.PFOEngRelDiff
TauJetsAuxDyn.PanTau_DecayModeExtended
TauJetsAuxDyn.TAU_SEEDTRK_SECMAXSTRIPETOVERPT
TauJetsAuxDyn.UpsilonCluster
TauJetsAuxDyn.chargedFELinks
TauJetsAuxDyn.etHotShotDR1
TauJetsAuxDyn.etHotShotDR1OverPtLeadTrk
TauJetsAuxDyn.etHotShotWin
TauJetsAuxDyn.etHotShotWinOverPtLeadTrk
TauJetsAuxDyn.etaCombined
TauJetsAuxDyn.hadLeakFracFixed
TauJetsAuxDyn.leadTrackProbHT
TauJetsAuxDyn.mCombined
TauJetsAuxDyn.nConversionTracks
TauJetsAuxDyn.nFakeTracks
TauJetsAuxDyn.nModifiedIsolationTracks
TauJetsAuxDyn.neutralFELinks
TauJetsAuxDyn.phiCombined
TauJetsAuxDyn.ptCombined
TauJetsAuxDyn.ptIntermediateAxisEM
TauJetsAuxDyn.rho
TauNeutralParticleFlowObjects
TauNeutralParticleFlowObjectsAux.
TauNeutralParticleFlowObjectsAuxDyn.cellBased_CENTER_LAMBDA
TauNeutralParticleFlowObjectsAuxDyn.cellBased_DELTA_PHI
TauNeutralParticleFlowObjectsAuxDyn.cellBased_DELTA_THETA
TauNeutralParticleFlowObjectsAuxDyn.cellBased_EM1CoreFrac
TauNeutralParticleFlowObjectsAuxDyn.cellBased_ENG_FRAC_CORE
TauNeutralParticleFlowObjectsAuxDyn.cellBased_ENG_FRAC_EM
TauNeutralParticleFlowObjectsAuxDyn.cellBased_ENG_FRAC_MAX
TauNeutralParticleFlowObjectsAuxDyn.cellBased_FIRST_ETA
TauNeutralParticleFlowObjectsAuxDyn.cellBased_LATERAL
TauNeutralParticleFlowObjectsAuxDyn.cellBased_LONGITUDINAL
TauNeutralParticleFlowObjectsAuxDyn.cellBased_NHitsInEM1
TauNeutralParticleFlowObjectsAuxDyn.cellBased_NPosECells_EM1
TauNeutralParticleFlowObjectsAuxDyn.cellBased_NPosECells_EM2
TauNeutralParticleFlowObjectsAuxDyn.cellBased_NPosECells_PS
TauNeutralParticleFlowObjectsAuxDyn.cellBased_SECOND_ENG_DENS
TauNeutralParticleFlowObjectsAuxDyn.cellBased_SECOND_LAMBDA
TauNeutralParticleFlowObjectsAuxDyn.cellBased_SECOND_R
TauNeutralParticleFlowObjectsAuxDyn.cellBased_energy_EM1
TauNeutralParticleFlowObjectsAuxDyn.cellBased_energy_EM2
TauNeutralParticleFlowObjectsAuxDyn.cellBased_firstEtaWRTClusterPosition_EM1
TauNeutralParticleFlowObjectsAuxDyn.cellBased_firstEtaWRTClusterPosition_EM2
TauNeutralParticleFlowObjectsAuxDyn.cellBased_secondEtaWRTClusterPosition_EM1
TauNeutralParticleFlowObjectsAuxDyn.cellBased_secondEtaWRTClusterPosition_EM2
TauNeutralParticleFlowObjectsAuxDyn.nPi0Proto
TauPi0Clusters
TauPi0ClustersAux.
TauPi0ClustersAuxDyn.BadChannelList
TauPi0ClustersAuxDyn.CENTER_LAMBDA
TauPi0ClustersAuxDyn.CENTER_MAG
TauPi0ClustersAuxDyn.CENTER_X
TauPi0ClustersAuxDyn.CENTER_Y
TauPi0ClustersAuxDyn.CENTER_Z
TauPi0ClustersAuxDyn.CellLink
TauPi0ClustersAuxDyn.DELTA_ALPHA
TauPi0ClustersAuxDyn.DELTA_PHI
TauPi0ClustersAuxDyn.DELTA_THETA
TauPi0ClustersAuxDyn.DM_WEIGHT
TauPi0ClustersAuxDyn.EM_PROBABILITY
TauPi0ClustersAuxDyn.ENG_FRAC_CORE
TauPi0ClustersAuxDyn.ENG_FRAC_EM
TauPi0ClustersAuxDyn.ENG_FRAC_MAX
TauPi0ClustersAuxDyn.FIRST_ENG_DENS
TauPi0ClustersAuxDyn.FIRST_ETA
TauPi0ClustersAuxDyn.FIRST_PHI
TauPi0ClustersAuxDyn.HAD_WEIGHT
TauPi0ClustersAuxDyn.ISOLATION
TauPi0ClustersAuxDyn.LATERAL
TauPi0ClustersAuxDyn.LONGITUDINAL
TauPi0ClustersAuxDyn.OOC_WEIGHT
TauPi0ClustersAuxDyn.SECOND_ENG_DENS
TauPi0ClustersAuxDyn.SECOND_LAMBDA
TauPi0ClustersAuxDyn.SECOND_R
TauPi0ClustersAuxDyn.emax_sampl
TauPi0ClustersAuxDyn.eta_sampl
TauPi0ClustersAuxDyn.etamax_sampl
TauPi0ClustersAuxDyn.phi_sampl
TauPi0ClustersAuxDyn.phimax_sampl
TauPi0Clusters_links
TauSecondaryVertices
TauSecondaryVerticesAux.
TauShotClusters
TauShotClustersAux.
TauShotClustersAuxDyn.CellLink
TauShotClustersAuxDyn.emax_sampl
TauShotClustersAuxDyn.eta_sampl
TauShotClustersAuxDyn.etamax_sampl
TauShotClustersAuxDyn.phi_sampl
TauShotClustersAuxDyn.phimax_sampl
TauShotClusters_links
TauShotParticleFlowObjects
TauShotParticleFlowObjectsAux.
TauShotParticleFlowObjectsAuxDyn.tauShots_nCellsInEta
TauShotParticleFlowObjectsAuxDyn.tauShots_nPhotons
TauShotParticleFlowObjectsAuxDyn.tauShots_pt1
TauShotParticleFlowObjectsAuxDyn.tauShots_pt3
TauShotParticleFlowObjectsAuxDyn.tauShots_pt5
TauShotParticleFlowObjectsAuxDyn.tauShots_seedHash
TauTracks
TauTracksAux.
TauTracksAuxDyn.CaloSamplingEtaEM
TauTracksAuxDyn.CaloSamplingEtaHad
TauTracksAuxDyn.CaloSamplingPhiEM
TauTracksAuxDyn.CaloSamplingPhiHad
TauTracksAuxDyn.d0SigTJVA
TauTracksAuxDyn.d0TJVA
TauTracksAuxDyn.rnn_chargedScore
TauTracksAuxDyn.rnn_conversionScore
TauTracksAuxDyn.rnn_fakeScore
TauTracksAuxDyn.rnn_isolationScore
TauTracksAuxDyn.z0sinthetaSigTJVA
TauTracksAuxDyn.z0sinthetaTJVA
TileMuObj
Token
TopoClusterIsoCentralEventShape
TopoClusterIsoCentralEventShapeAux.
TopoClusterIsoCentralEventShapeAuxDyn.Density
TopoClusterIsoCentralEventShapeAuxDyn.DensityArea
TopoClusterIsoCentralEventShapeAuxDyn.DensitySigma
TopoClusterIsoForwardEventShape
TopoClusterIsoForwardEventShapeAux.
TopoClusterIsoForwardEventShapeAuxDyn.Density
TopoClusterIsoForwardEventShapeAuxDyn.DensityArea
TopoClusterIsoForwardEventShapeAuxDyn.DensitySigma
TrigConfKeys
TrigNavigation
TrigNavigationAux.
TriggerMenuJson_BG
TriggerMenuJson_BGAux.
TriggerMenuJson_HLT
TriggerMenuJson_HLTAux.
TriggerMenuJson_HLTMonitoring
TriggerMenuJson_HLTMonitoringAux.
TriggerMenuJson_HLTPS
TriggerMenuJson_HLTPSAux.
TriggerMenuJson_L1
TriggerMenuJson_L1Aux.
TriggerMenuJson_L1PS
TriggerMenuJson_L1PSAux.
_TagInfo
egammaClusters
egammaClustersAux.
egammaClustersAuxDyn.BadChannelList
egammaClustersAuxDyn.CellLink
egammaClustersAuxDyn.ETA1CALOFRAME
egammaClustersAuxDyn.ETA2CALOFRAME
egammaClustersAuxDyn.ETACALOFRAME
egammaClustersAuxDyn.PHI1CALOFRAME
egammaClustersAuxDyn.PHI2CALOFRAME
egammaClustersAuxDyn.PHICALOFRAME
egammaClustersAuxDyn.constituentClusterLinks
egammaClustersAuxDyn.emax_sampl
egammaClustersAuxDyn.eta_sampl
egammaClustersAuxDyn.etamax_sampl
egammaClustersAuxDyn.phi_sampl
egammaClustersAuxDyn.phimax_sampl
egammaClusters_links
index_ref
xTrigDecision
xTrigDecisionAux.
